
       _                    _______        _        _____ _           _ _                       
      | |                  |__   __|      | |      / ____| |         | | |                      
      | | __ ___   ____ _     | | ___  ___| |__   | |    | |__   __ _| | | ___ _ __   __ _  ___ 
  _   | |/ _` \ \ / / _` |    | |/ _ \/ __| '_ \  | |    | '_ \ / _` | | |/ _ \ '_ \ / _` |/ _ \
 | |__| | (_| |\ V / (_| |    | |  __/ (__| | | | | |____| | | | (_| | | |  __/ | | | (_| |  __/
  \____/ \__,_| \_/ \__,_|    |_|\___|\___|_| |_|  \_____|_| |_|\__,_|_|_|\___|_| |_|\__, |\___|
                                                                                      __/ |     
                                                                                     |___/      
 